{
    // sftp or ftp
    "type": "ftp",
    "upload_on_save": true,
    
    "host": "ftp.heike-arndt.dk",
    "user": "heike-arndt.dk",
    "password": "alejandro",
    //"port": "22",
    
    "remote_path": "/berlin/wp-content/themes/gha-refactor",
    "ignore_regex": "(sftp-settings\\.json|\\.svn|\\.hg|\\.git|\\.bzr|_darcs|CVS|\\.DS_Store|Thumbs\\.db|desktop\\.ini)"
    //"file_permissions": "664",
    //"dir_permissions": "775",
    
    //"ftp_passive_mode": true,
    //"ssh_key_file": "~/.ssh/id_rsa",
    //"sftp_flags": "-F /path/to/ssh_config",
    //"remote_encoding": "utf-8",
}